^C:\USERS\משתמש\DOCUMENTS\MAGSHIMIM\C++\YONATANPLEPLER-LESSON13\YONATANPLEPLER-LESSON13-MULTI-THREAD-SERVER\YONATAN_PLEPLER_LESSON13\MULTI THREAD SERVER\HELPER.CPP|C:\USERS\משתמש\DOCUMENTS\MAGSHIMIM\C++\YONATANPLEPLER-LESSON13\YONATANPLEPLER-LESSON13-MULTI-THREAD-SERVER\YONATAN_PLEPLER_LESSON13\MULTI THREAD SERVER\SERVER.CPP|C:\USERS\משתמש\DOCUMENTS\MAGSHIMIM\C++\YONATANPLEPLER-LESSON13\YONATANPLEPLER-LESSON13-MULTI-THREAD-SERVER\YONATAN_PLEPLER_LESSON13\MULTI THREAD SERVER\SOURCE.CPP|C:\USERS\משתמש\DOCUMENTS\MAGSHIMIM\C++\YONATANPLEPLER-LESSON13\YONATANPLEPLER-LESSON13-MULTI-THREAD-SERVER\YONATAN_PLEPLER_LESSON13\MULTI THREAD SERVER\WSAINITIALIZER.CPP
C:\USERS\משתמש\DOCUMENTS\MAGSHIMIM\C++\YONATANPLEPLER-LESSON13\YONATANPLEPLER-LESSON13-MULTI-THREAD-SERVER\YONATAN_PLEPLER_LESSON13\MULTI THREAD SERVER\DEBUG\VC142.PDB
C:\USERS\משתמש\DOCUMENTS\MAGSHIMIM\C++\YONATANPLEPLER-LESSON13\YONATANPLEPLER-LESSON13-MULTI-THREAD-SERVER\YONATAN_PLEPLER_LESSON13\MULTI THREAD SERVER\DEBUG\VC142.IDB
C:\USERS\משתמש\DOCUMENTS\MAGSHIMIM\C++\YONATANPLEPLER-LESSON13\YONATANPLEPLER-LESSON13-MULTI-THREAD-SERVER\YONATAN_PLEPLER_LESSON13\MULTI THREAD SERVER\DEBUG\WSAINITIALIZER.OBJ
C:\USERS\משתמש\DOCUMENTS\MAGSHIMIM\C++\YONATANPLEPLER-LESSON13\YONATANPLEPLER-LESSON13-MULTI-THREAD-SERVER\YONATAN_PLEPLER_LESSON13\MULTI THREAD SERVER\DEBUG\SOURCE.OBJ
C:\USERS\משתמש\DOCUMENTS\MAGSHIMIM\C++\YONATANPLEPLER-LESSON13\YONATANPLEPLER-LESSON13-MULTI-THREAD-SERVER\YONATAN_PLEPLER_LESSON13\MULTI THREAD SERVER\DEBUG\SERVER.OBJ
C:\USERS\משתמש\DOCUMENTS\MAGSHIMIM\C++\YONATANPLEPLER-LESSON13\YONATANPLEPLER-LESSON13-MULTI-THREAD-SERVER\YONATAN_PLEPLER_LESSON13\MULTI THREAD SERVER\DEBUG\HELPER.OBJ
^C:\USERS\משתמש\DOCUMENTS\MAGSHIMIM\C++\YONATANPLEPLER-LESSON13\YONATANPLEPLER-LESSON13-MULTI-THREAD-SERVER\YONATAN_PLEPLER_LESSON13\MULTI THREAD SERVER\SOURCE.CPP
C:\USERS\משתמש\DOCUMENTS\MAGSHIMIM\C++\YONATANPLEPLER-LESSON13\YONATANPLEPLER-LESSON13-MULTI-THREAD-SERVER\YONATAN_PLEPLER_LESSON13\MULTI THREAD SERVER\DEBUG\VC142.PDB
^C:\USERS\משתמש\DOCUMENTS\MAGSHIMIM\C++\YONATANPLEPLER-LESSON13\YONATANPLEPLER-LESSON13-MULTI-THREAD-SERVER\YONATAN_PLEPLER_LESSON13\MULTI THREAD SERVER\WSAINITIALIZER.CPP
C:\USERS\משתמש\DOCUMENTS\MAGSHIMIM\C++\YONATANPLEPLER-LESSON13\YONATANPLEPLER-LESSON13-MULTI-THREAD-SERVER\YONATAN_PLEPLER_LESSON13\MULTI THREAD SERVER\DEBUG\VC142.PDB
^C:\USERS\משתמש\DOCUMENTS\MAGSHIMIM\C++\YONATANPLEPLER-LESSON13\YONATANPLEPLER-LESSON13-MULTI-THREAD-SERVER\YONATAN_PLEPLER_LESSON13\MULTI THREAD SERVER\HELPER.CPP|C:\USERS\משתמש\DOCUMENTS\MAGSHIMIM\C++\YONATANPLEPLER-LESSON13\YONATANPLEPLER-LESSON13-MULTI-THREAD-SERVER\YONATAN_PLEPLER_LESSON13\MULTI THREAD SERVER\SERVER.CPP
C:\USERS\משתמש\DOCUMENTS\MAGSHIMIM\C++\YONATANPLEPLER-LESSON13\YONATANPLEPLER-LESSON13-MULTI-THREAD-SERVER\YONATAN_PLEPLER_LESSON13\MULTI THREAD SERVER\DEBUG\VC142.PDB
C:\USERS\משתמש\DOCUMENTS\MAGSHIMIM\C++\YONATANPLEPLER-LESSON13\YONATANPLEPLER-LESSON13-MULTI-THREAD-SERVER\YONATAN_PLEPLER_LESSON13\MULTI THREAD SERVER\DEBUG\VC142.IDB
C:\USERS\משתמש\DOCUMENTS\MAGSHIMIM\C++\YONATANPLEPLER-LESSON13\YONATANPLEPLER-LESSON13-MULTI-THREAD-SERVER\YONATAN_PLEPLER_LESSON13\MULTI THREAD SERVER\DEBUG\SERVER.OBJ
C:\USERS\משתמש\DOCUMENTS\MAGSHIMIM\C++\YONATANPLEPLER-LESSON13\YONATANPLEPLER-LESSON13-MULTI-THREAD-SERVER\YONATAN_PLEPLER_LESSON13\MULTI THREAD SERVER\DEBUG\HELPER.OBJ
^C:\USERS\משתמש\DOCUMENTS\MAGSHIMIM\C++\YONATANPLEPLER-LESSON13\YONATANPLEPLER-LESSON13-MULTI-THREAD-SERVER\YONATAN_PLEPLER_LESSON13\MULTI THREAD SERVER\HELPER.CPP
C:\USERS\משתמש\DOCUMENTS\MAGSHIMIM\C++\YONATANPLEPLER-LESSON13\YONATANPLEPLER-LESSON13-MULTI-THREAD-SERVER\YONATAN_PLEPLER_LESSON13\MULTI THREAD SERVER\DEBUG\VC142.PDB
^C:\USERS\משתמש\DOCUMENTS\MAGSHIMIM\C++\YONATANPLEPLER-LESSON13\YONATANPLEPLER-LESSON13-MULTI-THREAD-SERVER\YONATAN_PLEPLER_LESSON13\MULTI THREAD SERVER\SERVER.CPP
C:\USERS\משתמש\DOCUMENTS\MAGSHIMIM\C++\YONATANPLEPLER-LESSON13\YONATANPLEPLER-LESSON13-MULTI-THREAD-SERVER\YONATAN_PLEPLER_LESSON13\MULTI THREAD SERVER\DEBUG\VC142.PDB
