^C:\USERS\משתמש\DOCUMENTS\MAGSHIMIM\C++\YONATANPLEPLER-LESSON13\YONATANPLEPLER-LESSON13-MULTI-THREAD-SERVER\YONATAN_PLEPLER_LESSON13\MULTI THREAD SERVER\DEBUG\HELPER.OBJ|C:\USERS\משתמש\DOCUMENTS\MAGSHIMIM\C++\YONATANPLEPLER-LESSON13\YONATANPLEPLER-LESSON13-MULTI-THREAD-SERVER\YONATAN_PLEPLER_LESSON13\MULTI THREAD SERVER\DEBUG\SERVER.OBJ|C:\USERS\משתמש\DOCUMENTS\MAGSHIMIM\C++\YONATANPLEPLER-LESSON13\YONATANPLEPLER-LESSON13-MULTI-THREAD-SERVER\YONATAN_PLEPLER_LESSON13\MULTI THREAD SERVER\DEBUG\SOURCE.OBJ|C:\USERS\משתמש\DOCUMENTS\MAGSHIMIM\C++\YONATANPLEPLER-LESSON13\YONATANPLEPLER-LESSON13-MULTI-THREAD-SERVER\YONATAN_PLEPLER_LESSON13\MULTI THREAD SERVER\DEBUG\WSAINITIALIZER.OBJ
C:\USERS\משתמש\DOCUMENTS\MAGSHIMIM\C++\YONATANPLEPLER-LESSON13\YONATANPLEPLER-LESSON13-MULTI-THREAD-SERVER\YONATAN_PLEPLER_LESSON13\DEBUG\MULTI THREAD SERVER.EXE
C:\USERS\משתמש\DOCUMENTS\MAGSHIMIM\C++\YONATANPLEPLER-LESSON13\YONATANPLEPLER-LESSON13-MULTI-THREAD-SERVER\YONATAN_PLEPLER_LESSON13\DEBUG\MULTI THREAD SERVER.ILK
C:\USERS\משתמש\DOCUMENTS\MAGSHIMIM\C++\YONATANPLEPLER-LESSON13\YONATANPLEPLER-LESSON13-MULTI-THREAD-SERVER\YONATAN_PLEPLER_LESSON13\DEBUG\MULTI THREAD SERVER.PDB
